Model Exploration
…
ggsave(here('./output/billboard_model_plots/coefs_predict_rank_week_no_intercept.png'),
       width = 8, height = 5, units = 'in')

Multiple

fit <- lm(rank ~ week + artist, data = clean_out)
(coefs <- tidy(fit))

## # A tibble: 229 x 5
##    term                 estimate std.error statistic  p.value
##    <chr>                   <dbl>     <dbl>     <dbl>    <dbl>
##  1 (Intercept)            87.6      7.71      11.4   1.51e-29
##  2 week                   -0.534    0.0369   -14.5   1.35e-46
##  3 artist2Ge+her           3.50    14.1        0.249 8.03e- 1
##  4 artist3 Doors Down    -38.0      8.10      -4.69  2.83e- 6
##  5 artist504 Boyz        -26.3      9.08      -2.89  3.85e- 3
##  6 artist98?             -44.3      8.96      -4.95  7.81e- 7
##  7 artistA*Teens          11.0     11.9        0.924 3.55e- 1
##  8 artistAaliyah         -49.7      8.22      -6.05  1.55e- 9
##  9 artistAdams, Yolanda  -14.2      8.96      -1.59  1.13e- 1
## 10 artistAdkins, Trace    -8.09     9.86      -0.820 4.12e- 1
## # ... with 219 more rows
…
ggsave(here('./output/billboard_model_plots/coefs_predict_rank_week_artist_sorted.png'),
       width = 8, height = 5, units = 'in')

Doing well

Who are the artists who are doing the best?

(pos <- coefs %>%
        filter(estimate > 0) %>%
        arrange(-estimate, std.error)
)

## # A tibble: 51 x 5
##    term                 estimate std.error statistic  p.value
##    <chr>                   <dbl>     <dbl>     <dbl>    <dbl>
##  1 (Intercept)              87.6      7.71    11.4   1.51e-29
##  2 artistHart, Beth         13.1      9.70     1.35  1.78e- 1
##  3 artistSmith, Will        12.8     12.8      0.999 3.18e- 1
##  4 artistLil' Mo            12.7     10.9      1.17  2.43e- 1
##  5 artistZombie Nation      12.2     16.3      0.748 4.54e- 1
##  6 artistHerndon, Ty        12.1     10.6      1.15  2.50e- 1
##  7 artistFragma             12.0     21.8      0.549 5.83e- 1
##  8 artistSheist, Shade      11.8     11.9      0.991 3.22e- 1
##  9 artistLL Cool J          11.7     16.3      0.718 4.73e- 1
## 10 artistLarrieux, Amel     11.5     14.1      0.818 4.14e- 1
## # ... with 41 more rows
…
Doing poorly

Who are the artists who are doing the worst

(neg <- coefs %>%
        filter(estimate < 0) %>%
        arrange(estimate, std.error)
)

## # A tibble: 178 x 5
##    term                              estimate std.error statistic  p.value
##    <chr>                                <dbl>     <dbl>     <dbl>    <dbl>
##  1 artistSantana                        -69.9      8.69     -8.04 1.12e-15
##  2 "artistElliott, Missy \"Misdemea    -67.4      8.90     -7.57 4.55e-14
##  3 artistN'Sync                         -62.0      8.07     -7.69 1.77e-14
##  4 artistJanet                          -61.5      8.76     -7.01 2.62e-12
##  5 artistMadonna                        -60.5      8.49     -7.12 1.20e-12
##  6 artistRuff Endz                      -60.4      8.69     -6.95 3.98e-12
##  7 artistAguilera, Christina            -60.2      8.10     -7.43 1.25e-13
##  8 artistDestiny's Child                -59.3      8.01     -7.41 1.47e-13
##  9 artistPink                           -59.3      8.16     -7.27 4.30e-13
## 10 artistSonique                        -58.8      8.76     -6.70 2.24e-11
## # ... with 168 more rows
…
Significant

(coefs %>% filter(p.value <= .05) %>%
        arrange(p.value, estimate)
)

## # A tibble: 122 x 5
##    term                              estimate std.error statistic  p.value
##    <chr>                                <dbl>     <dbl>     <dbl>    <dbl>
##  1 week                                -0.534    0.0369    -14.5  1.35e-46
##  2 (Intercept)                         87.6      7.71       11.4  1.51e-29
##  3 artistSantana                      -69.9      8.69       -8.04 1.12e-15
##  4 artistN'Sync                       -62.0      8.07       -7.69 1.77e-14
##  5 "artistElliott, Missy \"Misdemea  -67.4      8.90       -7.57 4.55e-14
##  6 artistAguilera, Christina          -60.2      8.10       -7.43 1.25e-13
##  7 artistDestiny's Child              -59.3      8.01       -7.41 1.47e-13
##  8 artistPink                         -59.3      8.16       -7.27 4.30e-13
##  9 artistMadonna                      -60.5      8.49       -7.12 1.20e-12
## 10 artistJanet                        -61.5      8.76       -7.01 2.62e-12
## # ... with 112 more rows
…
